…
    ## Rows: 3220 Columns: 7
    ## ── Column specification ────────────────────────────────────────────────────────
    ## Delimiter: ","
    ## chr (5): id, geographic_area_name, pop_est_annotation, population_moe, X6
    ## dbl (1): population_estimate
    ## lgl (1): X7
    ## 
    ## ℹ Use `spec()` to retrieve the full column specification for this data.
    ## ℹ Specify the column types or set `show_col_types = FALSE` to quiet this message.

``` r
df_pop
```

    ## # A tibble: 3,220 × 4
    ##    id             geographic_area_name     population_estimate population_moe
    ##    <chr>          <chr>                                  <dbl> <chr>         
    ##  1 0500000US01001 Autauga County, Alabama                55200 *****         
    ##  2 0500000US01003 Baldwin County, Alabama               208107 *****         
    ##  3 0500000US01005 Barbour County, Alabama                25782 *****         
    ##  4 0500000US01007 Bibb County, Alabama                   22527 *****         
    ##  5 0500000US01009 Blount County, Alabama                 57645 *****         
    ##  6 0500000US01011 Bullock County, Alabama                10352 *****         
    ##  7 0500000US01013 Butler County, Alabama                 20025 *****         
    ##  8 0500000US01015 Calhoun County, Alabama               115098 *****         
    ##  9 0500000US01017 Chambers County, Alabama               33826 *****         
    ## 10 0500000US01019 Cherokee County, Alabama               25853 *****         
    ## # … with 3,210 more rows
…
    ## Rows: 3220 Columns: 483
    ## ── Column specification ────────────────────────────────────────────────────────
    ## Delimiter: ","
    ## chr (306): Geography, Geographic Area Name, Annotation of Margin of Error!!N...
    ## dbl (176): Estimate!!Number!!HOUSEHOLD INCOME BY RACE AND HISPANIC OR LATINO...
    ## lgl   (1): ...483
    ## 
    ## ℹ Use `spec()` to retrieve the full column specification for this data.
    ## ℹ Specify the column types or set `show_col_types = FALSE` to quiet this message.

``` r
df_income 
```

    ## # A tibble: 3,220 × 483
    ##    id    Geogr…¹ Estim…² Margi…³ Annot…⁴ Annot…⁵ Estim…⁶ Margi…⁷ Annot…⁸ Annot…⁹
    ##    <chr> <chr>     <dbl>   <dbl> <chr>   <chr>     <dbl>   <dbl> <chr>   <chr>  
    ##  1 0500… Autaug…   21115     383 null    null      16585     363 null    null   
    ##  2 0500… Baldwi…   78622    1183 null    null      69544    1042 null    null   
    ##  3 0500… Barbou…    9186     280 null    null       4729     211 null    null   
    ##  4 0500… Bibb C…    6840     321 null    null       5588     346 null    null   
    ##  5 0500… Blount…   20600     396 null    null      20054     417 null    null   
    ##  6 0500… Bulloc…    3609     196 null    null        881     119 null    null   
    ##  7 0500… Butler…    6708     274 null    null       3821     173 null    null   
    ##  8 0500… Calhou…   45033     683 null    null      33820     559 null    null   
    ##  9 0500… Chambe…   13516     372 null    null       7953     296 null    null   
    ## 10 0500… Cherok…   10606     370 null    null       9953     356 null    null   
    ## # … with 3,210 more rows, 473 more variables:
    ## #   `Estimate!!Number!!HOUSEHOLD INCOME BY RACE AND HISPANIC OR LATINO ORIGIN OF HOUSEHOLDER!!Households!!One race--!!Black or African American` <dbl>,
    ## #   `Annotation of Estimate!!Number!!HOUSEHOLD INCOME BY RACE AND HISPANIC OR LATINO ORIGIN OF HOUSEHOLDER!!Households!!One race--!!Black or African American` <chr>,
    ## #   `Margin of Error!!Number MOE!!HOUSEHOLD INCOME BY RACE AND HISPANIC OR LATINO ORIGIN OF HOUSEHOLDER!!Households!!One race--!!Black or African American` <dbl>,
    ## #   `Annotation of Margin of Error!!Number MOE!!HOUSEHOLD INCOME BY RACE AND HISPANIC OR LATINO ORIGIN OF HOUSEHOLDER!!Households!!One race--!!Black or African American` <chr>,
    ## #   `Estimate!!Number!!HOUSEHOLD INCOME BY RACE AND HISPANIC OR LATINO ORIGIN OF HOUSEHOLDER!!Households!!One race--!!American Indian and Alaska Native` <dbl>,
    ## #   `Margin of Error!!Number MOE!!HOUSEHOLD INCOME BY RACE AND HISPANIC OR LATINO ORIGIN OF HOUSEHOLDER!!Households!!One race--!!American Indian and Alaska Native` <dbl>, …
…
df_q4 <-
  df_q3 %>% 
  group_by(id) %>%
  mutate(
    income_SE = income_moe / 1.645,
    income_CV = income_SE / income_estimate,
    income_lo = income_estimate - q99 * income_SE,
    income_hi = income_estimate + q99 * income_SE
  )

df_q4
```

    ## # A tibble: 15,286 × 9
    ## # Groups:   id [3,219]
    ##    id            geogr…¹ categ…² incom…³ incom…⁴ incom…⁵ incom…⁶ incom…⁷ incom…⁸
    ##    <chr>         <chr>   <chr>     <dbl>   <dbl>   <dbl>   <dbl>   <dbl>   <dbl>
    ##  1 0500000US010… Autaug… 2-pers…   64947    6663   4050.  0.0624  54514.  75380.
    ##  2 0500000US010… Autaug… 3-pers…   80172   14181   8621.  0.108   57967. 102377.
    ##  3 0500000US010… Autaug… 4-pers…   85455   10692   6500.  0.0761  68713. 102197.
    ##  4 0500000US010… Autaug… 5-pers…   88601   20739  12607.  0.142   56127. 121075.
    ##  5 0500000US010… Autaug… 6-pers…  103787   12387   7530.  0.0726  84391. 123183.
    ##  6 0500000US010… Baldwi… 2-pers…   63975    2297   1396.  0.0218  60378.  67572.
    ##  7 0500000US010… Baldwi… 3-pers…   79390    8851   5381.  0.0678  65531.  93249.
    ##  8 0500000US010… Baldwi… 4-pers…   88458    5199   3160.  0.0357  80317.  96599.
    ##  9 0500000US010… Baldwi… 5-pers…   91259    7011   4262.  0.0467  80281. 102237.
    ## 10 0500000US010… Baldwi… 6-pers…   69609   23175  14088.  0.202   33320. 105898.
    ## # … with 15,276 more rows, and abbreviated variable names
    ## #   ¹​geographic_area_name, ²​category, ³​income_estimate, ⁴​income_moe,
    ## #   ⁵​income_SE, ⁶​income_CV, ⁷​income_lo, ⁸​income_hi
…
### **q5** Join `df_q4` and `df_pop`.

``` r
df_data <-
  left_join(df_q4, df_pop)
```

    ## Joining, by = c("id", "geographic_area_name")

``` r
df_data
```

    ## # A tibble: 15,286 × 11
    ## # Groups:   id [3,219]
    ##    id    geogr…¹ categ…² incom…³ incom…⁴ incom…⁵ incom…⁶ incom…⁷ incom…⁸ popul…⁹
    ##    <chr> <chr>   <chr>     <dbl>   <dbl>   <dbl>   <dbl>   <dbl>   <dbl>   <dbl>
    ##  1 0500… Autaug… 2-pers…   64947    6663   4050.  0.0624  54514.  75380.   55200
    ##  2 0500… Autaug… 3-pers…   80172   14181   8621.  0.108   57967. 102377.   55200
    ##  3 0500… Autaug… 4-pers…   85455   10692   6500.  0.0761  68713. 102197.   55200
    ##  4 0500… Autaug… 5-pers…   88601   20739  12607.  0.142   56127. 121075.   55200
    ##  5 0500… Autaug… 6-pers…  103787   12387   7530.  0.0726  84391. 123183.   55200
    ##  6 0500… Baldwi… 2-pers…   63975    2297   1396.  0.0218  60378.  67572.  208107
    ##  7 0500… Baldwi… 3-pers…   79390    8851   5381.  0.0678  65531.  93249.  208107
    ##  8 0500… Baldwi… 4-pers…   88458    5199   3160.  0.0357  80317.  96599.  208107
    ##  9 0500… Baldwi… 5-pers…   91259    7011   4262.  0.0467  80281. 102237.  208107
    ## 10 0500… Baldwi… 6-pers…   69609   23175  14088.  0.202   33320. 105898.  208107
    ## # … with 15,276 more rows, 1 more variable: population_moe <chr>, and
    ## #   abbreviated variable names ¹​geographic_area_name, ²​category,
    ## #   ³​income_estimate, ⁴​income_moe, ⁵​income_SE, ⁶​income_CV, ⁷​income_lo,
    ## #   ⁸​income_hi, ⁹​population_estimate
…
    ## Warning in mask$eval_all_mutate(quo): NAs introduced by coercion

    ## Warning in mask$eval_all_mutate(quo): NAs introduced by coercion

    ## Warning in mask$eval_all_mutate(quo): NAs introduced by coercion

    ## Warning in mask$eval_all_mutate(quo): NAs introduced by coercion

    ## Joining, by = c("id", "geographic_area_name")

``` r
df_q8
```

    ## # A tibble: 12,440 × 11
    ## # Groups:   id [3,219]
    ##    id    geogr…¹ categ…² incom…³ incom…⁴ incom…⁵ incom…⁶ incom…⁷ incom…⁸ popul…⁹
    ##    <chr> <chr>   <chr>     <dbl>   <dbl>   <dbl>   <dbl>   <dbl>   <dbl>   <dbl>
    ##  1 0500… Autaug… 25 to …   61203    4583   2786.  0.0455  54027.  68379.   55200
    ##  2 0500… Autaug… 45 to …   79748    5751   3496.  0.0438  70743.  88753.   55200
    ##  3 0500… Autaug… 65 yea…   40822    5108   3105.  0.0761  32824.  48820.   55200
    ##  4 0500… Baldwi… 15 to …   40051    5279   3209.  0.0801  31785.  48317.  208107
    ##  5 0500… Baldwi… 25 to …   62192    3827   2326.  0.0374  56199.  68185.  208107
    ##  6 0500… Baldwi… 45 to …   63921    2567   1560.  0.0244  59901.  67941.  208107
    ##  7 0500… Baldwi… 65 yea…   45680    1847   1123.  0.0246  42788.  48572.  208107
    ##  8 0500… Barbou… 15 to …   17788    7151   4347.  0.244    6591.  28985.   25782
    ##  9 0500… Barbou… 25 to …   35140    6613   4020.  0.114   24785.  45495.   25782
    ## 10 0500… Barbou… 45 to …   40255    3537   2150.  0.0534  34717.  45793.   25782
    ## # … with 12,430 more rows, 1 more variable: population_moe <chr>, and
    ## #   abbreviated variable names ¹​geographic_area_name, ²​category,
    ## #   ³​income_estimate, ⁴​income_moe, ⁵​income_SE, ⁶​income_CV, ⁷​income_lo,
    ## #   ⁸​income_hi, ⁹​population_estimate
…
