…
### **q1** Perform your “initial checks” to get a sense of the data.

``` r
df_psaap
```

    ## # A tibble: 140 × 22
    ##        x   idx     L      W   U_0    N_p    k_f   T_f rho_f    mu_f  lam_f  C_fp
    ##    <dbl> <dbl> <dbl>  <dbl> <dbl>  <dbl>  <dbl> <dbl> <dbl>   <dbl>  <dbl> <dbl>
    ##  1  0.25     1 0.190 0.0342  1.86 1.60e6 0.0832  300. 1.16  1.52e-5 0.0316 1062.
    ##  2  0.25     2 0.151 0.0464  2.23 2.22e6 0.111   243. 1.13  1.84e-5 0.0259 1114.
    ##  3  0.25     3 0.169 0.0398  2.04 1.71e6 0.0867  290. 1.10  2.18e-5 0.0349  952.
    ##  4  0.25     4 0.135 0.0325  2.45 2.08e6 0.121   358. 1.23  2.23e-5 0.0370  998.
    ##  5  0.25     5 0.201 0.0441  1.70 1.95e6 0.0904  252. 1.44  2.28e-5 0.0356  937.
    ##  6  0.25     6 0.160 0.0379  1.96 1.82e6 0.0798  280. 0.964 2.13e-5 0.0249 1224.
    ##  7  0.25     7 0.179 0.0360  2.36 2.36e6 0.102   261. 1.40  2.03e-5 0.0322  813.
    ##  8  0.25     8 0.143 0.0488  2.15 1.57e6 0.0982  270. 1.02  1.98e-5 0.0329  967.
    ##  9  0.25     9 0.184 0.0419  2.58 2.18e6 0.107   322. 1.07  1.56e-5 0.0292 1186.
    ## 10  0.25    10 0.147 0.0336  1.79 1.68e6 0.0942  333. 1.04  1.80e-5 0.0280  826.
    ## # … with 130 more rows, and 10 more variables: rho_p <dbl>, d_p <dbl>,
    ## #   C_pv <dbl>, h <dbl>, I_0 <dbl>, eps_p <dbl>, avg_q <dbl>, avg_T <dbl>,
    ## #   rms_T <dbl>, T_norm <dbl>
…
    ## [1] 0.25 0.50 0.75 1.00

``` r
df_psaap %>% pull(idx) %>% max()
```

    ## [1] 35

``` r
df_psaap %>% arrange(idx)
```

    ## # A tibble: 140 × 22
    ##        x   idx     L      W   U_0    N_p    k_f   T_f rho_f    mu_f  lam_f  C_fp
    ##    <dbl> <dbl> <dbl>  <dbl> <dbl>  <dbl>  <dbl> <dbl> <dbl>   <dbl>  <dbl> <dbl>
    ##  1  0.25     1 0.190 0.0342  1.86 1.60e6 0.0832  300.  1.16 1.52e-5 0.0316 1062.
    ##  2  0.5      1 0.190 0.0342  1.86 1.60e6 0.0832  300.  1.16 1.52e-5 0.0316 1062.
    ##  3  0.75     1 0.190 0.0342  1.86 1.60e6 0.0832  300.  1.16 1.52e-5 0.0316 1062.
    ##  4  1        1 0.190 0.0342  1.86 1.60e6 0.0832  300.  1.16 1.52e-5 0.0316 1062.
    ##  5  0.25     2 0.151 0.0464  2.23 2.22e6 0.111   243.  1.13 1.84e-5 0.0259 1114.
    ##  6  0.5      2 0.151 0.0464  2.23 2.22e6 0.111   243.  1.13 1.84e-5 0.0259 1114.
    ##  7  0.75     2 0.151 0.0464  2.23 2.22e6 0.111   243.  1.13 1.84e-5 0.0259 1114.
    ##  8  1        2 0.151 0.0464  2.23 2.22e6 0.111   243.  1.13 1.84e-5 0.0259 1114.
    ##  9  0.25     3 0.169 0.0398  2.04 1.71e6 0.0867  290.  1.10 2.18e-5 0.0349  952.
    ## 10  0.5      3 0.169 0.0398  2.04 1.71e6 0.0867  290.  1.10 2.18e-5 0.0349  952.
    ## # … with 130 more rows, and 10 more variables: rho_p <dbl>, d_p <dbl>,
    ## #   C_pv <dbl>, h <dbl>, I_0 <dbl>, eps_p <dbl>, avg_q <dbl>, avg_T <dbl>,
    ## #   rms_T <dbl>, T_norm <dbl>
…
